<svg width="10" height="15" viewBox="0 0 10 15" fill="none" xmlns="http://www.w3.org/2000/svg">
<path d="M6.04167 13.5C6.04167 14.0156 5.57292 14.4375 5 14.4375C4.42708 14.4375 3.95833 14.0156 3.95833 13.5C3.95833 12.9844 4.42708 12.5625 5 12.5625C5.57292 12.5625 6.04167 12.9844 6.04167 13.5ZM8.75 11.625C8.75 11.8242 8.55469 12 8.33333 12H1.66667C1.44531 12 1.25 11.8242 1.25 11.625V3.375C1.25 3.17578 1.44531 3 1.66667 3H8.33333C8.55469 3 8.75 3.17578 8.75 3.375V11.625ZM6.25 1.6875C6.25 1.79297 6.15885 1.875 6.04167 1.875H3.95833C3.84115 1.875 3.75 1.79297 3.75 1.6875C3.75 1.58203 3.84115 1.5 3.95833 1.5H6.04167C6.15885 1.5 6.25 1.58203 6.25 1.6875ZM10 1.5C10 0.679687 9.24479 0 8.33333 0H1.66667C0.755208 0 0 0.679687 0 1.5V13.5C0 14.3203 0.755208 15 1.66667 15H8.33333C9.24479 15 10 14.3203 10 13.5V1.5Z" fill="#9E8447"/>
</svg>
