{
  "migIndex": 1,
  "data": [
    {
      "path": "src/assets/fonts/HelveticaNeu-Bold.ttf",
      "sha1": "4df1c65ace6cb5dfa38ef3f2b59e89ab6d08ada8"
    },
    {
      "path": "src/assets/fonts/HelveticaNeue-Light.ttf",
      "sha1": "14236487c484725caf35ed434068fca8ab7e750f"
    },
    {
      "path": "src/assets/fonts/HelveticaNeue-Medium.ttf",
      "sha1": "5b235bd8ab01aa99e3a2a66daea10350a9d254ed"
    },
    {
      "path": "src/assets/fonts/HelveticaNeue.ttf",
      "sha1": "d82ba04b7438da9836d701bbf704600d77b466c0"
    },
    {
      "path": "src/assets/fonts/SF-Pro-Display-Black.ttf",
      "sha1": "57cc214bdd6935326f23e31862f5722b213ad35b"
    },
    {
      "path": "src/assets/fonts/SF-Pro-Display-BlackItalic.ttf",
      "sha1": "00cc53379e83748fc6a8797e1fef270ca8eda1f2"
    },
    {
      "path": "src/assets/fonts/sf-pro-text-bold.ttf",
      "sha1": "31667a859b586e079d2e6d9193b8d245c939adb6"
    },
    {
      "path": "src/assets/fonts/sf-pro-text-medium.ttf",
      "sha1": "62f39df9906a56dc84d68caf2996940413e55525"
    },
    {
      "path": "src/assets/fonts/sf-pro-text-regular.ttf",
      "sha1": "cded5e96ac169b65519e822d4ae6428e2ada9f31"
    },
    {
      "path": "src/assets/fonts/sf-pro-text-semibold.ttf",
      "sha1": "eb4d4aa16e23ce6374667c66fc750501a34ac9a4"
    }
  ]
}
